Curso-R: Regressão Linear <br> Exercícios RLSM
…
        fit      lwr      upr
1  25.17575 24.55039 25.80110
2  23.77402 23.18536 24.36269
3  30.72803 29.78817 31.66790
4  29.02594 28.20203 29.84984
5  30.38215 29.46676 31.29755
6  23.85594 23.26582 24.44606
7  20.05126 19.43134 20.67118
8  21.50760 20.92234 22.09285
9  16.58335 15.79375 17.37296
10 19.97844 19.35611 20.60078

augment(mod_simples)

# A tibble: 506 x 8
    medv    rm .fitted  .resid .std.resid    .hat .sigma     .cooksd
   <dbl> <dbl>   <dbl>   <dbl>      <dbl>   <dbl>  <dbl>       <dbl>
 1  24    6.58    25.2 -1.18      -0.178  0.00231   6.62 0.0000367  
 2  21.6  6.42    23.8 -2.17      -0.329  0.00205   6.62 0.000111   
 3  34.7  7.18    30.7  3.97       0.602  0.00523   6.62 0.000952   
 4  33.4  7.00    29.0  4.37       0.662  0.00402   6.62 0.000885   
 5  36.2  7.15    30.4  5.82       0.882  0.00496   6.62 0.00194    
 6  28.7  6.43    23.9  4.84       0.733  0.00206   6.62 0.000555   
 7  22.9  6.01    20.1  2.85       0.431  0.00227   6.62 0.000212   
 8  27.1  6.17    21.5  5.59       0.846  0.00203   6.62 0.000727   
 9  16.5  5.63    16.6 -0.0834    -0.0126 0.00369   6.62 0.000000295
10  18.9  6.00    20.0 -1.08      -0.163  0.00229   6.62 0.0000306  
# … with 496 more rows
…
